<?xml version="1.0" encoding="UTF-8"?>
<kml xmlns="http://www.opengis.net/kml/2.2" xmlns:gx="http://www.google.com/kml/ext/2.2" xmlns:kml="http://www.opengis.net/kml/2.2" xmlns:atom="http://www.w3.org/2005/Atom">
<Document>
	<name>Cà Roman - Dalla Lgauna al mare (1.4 km).kml</name>
	<StyleMap id="m_ylw-pushpin">
		<Pair>
			<key>normal</key>
			<styleUrl>#s_ylw-pushpin</styleUrl>
		</Pair>
		<Pair>
			<key>highlight</key>
			<styleUrl>#s_ylw-pushpin_hl</styleUrl>
		</Pair>
	</StyleMap>
	<Style id="s_ylw-pushpin_hl">
		<IconStyle>
			<scale>1.3</scale>
			<Icon>
				<href>http://maps.google.com/mapfiles/kml/pushpin/ylw-pushpin.png</href>
			</Icon>
			<hotSpot x="20" y="2" xunits="pixels" yunits="pixels"/>
		</IconStyle>
	</Style>
	<Style id="s_ylw-pushpin">
		<IconStyle>
			<scale>1.1</scale>
			<Icon>
				<href>http://maps.google.com/mapfiles/kml/pushpin/ylw-pushpin.png</href>
			</Icon>
			<hotSpot x="20" y="2" xunits="pixels" yunits="pixels"/>
		</IconStyle>
	</Style>
	<Placemark>
		<name>Cà Roman - Dalla Lgauna al mare (1.4 km)</name>
		<styleUrl>#m_ylw-pushpin</styleUrl>
		<LineString>
			<tessellate>1</tessellate>
			<coordinates>
				12.29437561767693,45.24340974335037,0 12.29357320049093,45.24272782212737,0 12.29329858458801,45.24244496768345,0 12.29305126374265,45.24199848194809,0 12.29275434166393,45.24144030177163,0 12.29243912500493,45.24082561823005,0 12.29220856658587,45.24040756011073,0 12.29176642952181,45.23978497649942,0 12.29161928389161,45.23957431025391,0 12.29145745586839,45.23938435200864,0 12.29137895837149,45.23921505788633,0 12.29126607012442,45.23904566979784,0 12.29105998968331,45.23875541693558,0 12.29093272277945,45.23844153214736,0 12.29098681490431,45.2383347757368,0 12.29107965181523,45.23825097965417,0 12.29122167639834,45.23790398462225,0 12.29123158652183,45.23770732791978,0 12.29142786098888,45.2377885498822,0 12.29152613950589,45.23788442738091,0 12.29164424255875,45.23807359319159,0 12.29184596839446,45.23815712705997,0 12.29203774225787,45.23821641050729,0 12.292135794246,45.23837643138144,0 12.29215001053525,45.23857810124995,0 12.29221841168555,45.23867544942365,0 12.29232114490061,45.23873807673243,0 12.29248777761167,45.23879009335661,0 12.29309020508678,45.23866288862126,0 12.29371584780919,45.23852572519718,0 12.29446794697965,45.23835907115787,0 12.29491238464904,45.23834064871618,0 12.29535326509851,45.23832548006645,0 12.2957693702289,45.23825175769708,0 12.29620427799354,45.23828877895661,0 12.29641614505353,45.23826417195392,0 12.29663776906616,45.23829531502233,0 12.29694306505173,45.23839932709675,0 12.29715972613686,45.23844786338449,0 12.29757334765726,45.23843744916275,0 12.298075603936,45.23842356259143,0 12.29872066193246,45.23841313436817,0 
			</coordinates>
		</LineString>
	</Placemark>
</Document>
</kml>
