<?xml version="1.0" encoding="UTF-8"?>
<kml xmlns="http://www.opengis.net/kml/2.2" xmlns:gx="http://www.google.com/kml/ext/2.2" xmlns:kml="http://www.opengis.net/kml/2.2" xmlns:atom="http://www.w3.org/2005/Atom">
<Document>
	<name>Laguna sud - Le Giare (2.6 km).kml</name>
	<StyleMap id="m_ylw-pushpin">
		<Pair>
			<key>normal</key>
			<styleUrl>#s_ylw-pushpin</styleUrl>
		</Pair>
		<Pair>
			<key>highlight</key>
			<styleUrl>#s_ylw-pushpin_hl</styleUrl>
		</Pair>
	</StyleMap>
	<Style id="s_ylw-pushpin_hl">
		<IconStyle>
			<scale>1.3</scale>
			<Icon>
				<href>http://maps.google.com/mapfiles/kml/pushpin/ylw-pushpin.png</href>
			</Icon>
			<hotSpot x="20" y="2" xunits="pixels" yunits="pixels"/>
		</IconStyle>
	</Style>
	<Style id="s_ylw-pushpin">
		<IconStyle>
			<scale>1.1</scale>
			<Icon>
				<href>http://maps.google.com/mapfiles/kml/pushpin/ylw-pushpin.png</href>
			</Icon>
			<hotSpot x="20" y="2" xunits="pixels" yunits="pixels"/>
		</IconStyle>
	</Style>
	<Placemark>
		<name>Laguna sud - Le Giare (2.6 km)</name>
		<styleUrl>#m_ylw-pushpin</styleUrl>
		<LineString>
			<tessellate>1</tessellate>
			<coordinates>
				12.20486213872784,45.23821586488518,0 12.20523355533901,45.23837473387091,0 12.20535062209974,45.23852010272627,0 12.20539918508011,45.23872799607189,0 12.20540776644819,45.2390536247713,0 12.20567975004196,45.23928879045987,0 12.20606415970698,45.23966524152529,0 12.20745533998977,45.24094923993975,0 12.2088099935917,45.24224814118526,0 12.20963478144114,45.24291375402445,0 12.21030407829802,45.24334316791975,0 12.21118456518208,45.24389926698341,0 12.2118808871822,45.24437051601725,0 12.21286136444378,45.24502210234973,0 12.21302422372206,45.2455784163452,0 12.2135109019794,45.24805727874578,0 12.21368846590432,45.24900479557659,0 12.21380378436332,45.24943257304089,0 12.21395017518956,45.24945039709253,0 12.21407628527746,45.24946110206378,0 12.21423274836916,45.24951631735397,0 12.21434629163021,45.24956972452386,0 12.21443705467054,45.2496195374211,0 12.21451569295216,45.24963846444855,0 12.2145663596303,45.24964913194069,0 12.21462322255948,45.24964790221144,0 12.21477371346786,45.24958028481075,0 12.2149415099615,45.24952165840037,0 12.21519056368274,45.24943315162754,0 12.21546972597476,45.24929047682819,0 12.2157725781271,45.24915613753237,0 12.21608355413952,45.24906045985549,0 12.21621772700268,45.24903565636799,0 12.21642063037101,45.24899662096858,0 12.21659341426312,45.24892545338089,0 12.21684233745105,45.24883108150517,0 12.21739276263917,45.24860791105893,0 12.21773013347644,45.24852484903161,0 12.21808718118566,45.24847176143843,0 12.21853149759061,45.24841170001065,0 12.21884690285112,45.24841191093237,0 12.21885447258132,45.24841191586351,0 12.21906897352596,45.24850971555966,0 12.2192380786331,45.24862000883046,0 12.21935923752766,45.24864497539084,0 12.21958630224938,45.24865400998967,0 12.2196918740018,45.24866650579641,0 12.2197470895249,45.2487091606904,0 12.21981732242591,45.24876777931124,0 12.21989755083355,45.2488263631773,0 12.21995266274415,45.24887781964239,0 12.22003035327707,45.24889375955215,0 12.22007791908578,45.24892389328891,0 12.21998265225966,45.24895233401807,0 12.21991003283592,45.24887250937459,0 12.21979221608681,45.24876777665264,0 12.21966671153505,45.24868958950385,0 12.21947282417732,45.24866815912571,0 12.21896793136729,45.24861271890339,0 12.21875330887213,45.24862146364616,0 12.21854876398682,45.24864621252922,0 12.21836693523512,45.24867630894091,0 12.21822033200195,45.2486922273116,0 12.21821527131528,45.2486922251692,0 12.21805350781541,45.24869390626778,0 12.21783372460893,45.24869553680814,0 12.21760130589044,45.24874161485298,0 12.21701943329088,45.24894439862101,0 12.21688284686157,45.24903892025764,0 12.21670812703091,45.24909581582341,0 12.21634135245298,45.24926914845139,0 12.21600125272676,45.2494557729102,0 12.21569977651438,45.24960163708216,0 12.21564185152889,45.24961223225157,0 12.21546801146499,45.2496901055935,0 12.21520830900247,45.24980703274879,0 12.21500835149005,45.24988005664009,0 12.21492222485109,45.24989793177526,0 12.21485141355336,45.24988021271646,0 12.21477344802898,45.24977709960569,0 12.21467001698168,45.24969712314578,0 12.2146498898503,45.249672236662,0 12.21458647866897,45.24967580223141,0 12.21449012436591,45.24966692291418,0 12.21442181797004,45.24966689552997,0 12.21433849637393,45.24966683666419,0 12.2142728822994,45.24964368211141,0 12.21423253736101,45.24960632456597,0 12.21420734949471,45.2495636450679,0 12.21417712169333,45.24951385177157,0 
			</coordinates>
		</LineString>
	</Placemark>
</Document>
</kml>
