2013-04-08 02:16:50 identical css/common.css 
2013-04-08 02:16:50 identical css/dashboard.css 
2013-04-08 02:16:50 identical css/dynatree_custom.css 
2013-04-08 02:16:51 overwrite css/edit.css 
2013-04-08 02:16:51 identical css/footer.css 
2013-04-08 02:16:51 identical css/form.css 
2013-04-08 02:16:51 identical css/ie8.css 
2013-04-08 02:16:51 identical css/ie9.css 
2013-04-08 02:16:52 overwrite css/invictus.css 
2013-04-08 02:16:52 identical css/itemlist.css 
2013-04-08 02:16:52 identical css/jquery-ui-jqgrid-mod.css 
2013-04-08 02:16:52 identical css/jquery-ui-mod.css 
2013-04-08 02:16:52 identical css/login.css 
2013-04-08 02:16:52 identical css/misc.css 
2013-04-08 02:16:52 identical css/mixins.css 
2013-04-08 02:16:52 identical css/print.css 
2013-04-08 02:16:52 identical css/reset.css 
2013-04-08 02:16:52 identical css/sidebar.css 
2013-04-08 02:16:52 identical css/topbar.css 
2013-04-08 02:16:52 identical css/treelist.css 
2013-04-08 02:16:52 identical css/vars.css 
2013-04-08 02:17:30 identical css/common.css 
2013-04-08 02:17:30 identical css/dashboard.css 
2013-04-08 02:17:30 identical css/dynatree_custom.css 
2013-04-08 02:17:30 overwrite css/edit.css 
2013-04-08 02:17:30 identical css/footer.css 
2013-04-08 02:17:31 identical css/form.css 
2013-04-08 02:17:31 identical css/ie8.css 
2013-04-08 02:17:31 identical css/ie9.css 
2013-04-08 02:17:31 overwrite css/invictus.css 
2013-04-08 02:17:31 identical css/itemlist.css 
2013-04-08 02:17:31 identical css/jquery-ui-jqgrid-mod.css 
2013-04-08 02:17:32 identical css/jquery-ui-mod.css 
2013-04-08 02:17:32 identical css/login.css 
2013-04-08 02:17:32 identical css/misc.css 
2013-04-08 02:17:32 identical css/mixins.css 
2013-04-08 02:17:32 identical css/print.css 
2013-04-08 02:17:32 identical css/reset.css 
2013-04-08 02:17:32 identical css/sidebar.css 
2013-04-08 02:17:32 identical css/topbar.css 
2013-04-08 02:17:32 identical css/treelist.css 
2013-04-08 02:17:32 identical css/vars.css 
2013-04-08 02:18:28 identical css/common.css 
2013-04-08 02:18:28 identical css/dashboard.css 
2013-04-08 02:18:28 identical css/dynatree_custom.css 
2013-04-08 02:18:29 overwrite css/edit.css 
2013-04-08 02:18:29 identical css/footer.css 
2013-04-08 02:18:29 identical css/form.css 
2013-04-08 02:18:29 identical css/ie8.css 
2013-04-08 02:18:29 identical css/ie9.css 
2013-04-08 02:18:30 overwrite css/invictus.css 
2013-04-08 02:18:30 identical css/itemlist.css 
2013-04-08 02:18:30 identical css/jquery-ui-jqgrid-mod.css 
2013-04-08 02:18:30 identical css/jquery-ui-mod.css 
2013-04-08 02:18:30 identical css/login.css 
2013-04-08 02:18:30 identical css/misc.css 
2013-04-08 02:18:30 identical css/mixins.css 
2013-04-08 02:18:30 identical css/print.css 
2013-04-08 02:18:30 identical css/reset.css 
2013-04-08 02:18:30 identical css/sidebar.css 
2013-04-08 02:18:30 identical css/topbar.css 
2013-04-08 02:18:30 identical css/treelist.css 
2013-04-08 02:18:30 identical css/vars.css 
2013-04-08 02:21:17 overwrite css/invictus.css 
2013-04-08 02:22:05 overwrite css/invictus.css 
2013-04-08 02:22:32 overwrite css/invictus.css 
2013-04-08 02:22:59 overwrite css/invictus.css 
2013-04-08 02:23:15 overwrite css/invictus.css 
2013-04-08 02:23:33 overwrite css/invictus.css 
2013-04-08 03:23:00    create stylesheets/invictus.css 
2013-04-08 03:28:53 overwrite stylesheets/invictus.css 
2013-04-08 03:30:17 overwrite stylesheets/invictus.css 
2013-04-08 03:33:57 overwrite stylesheets/invictus.css 
2013-04-08 03:38:28 overwrite stylesheets/invictus.css 
2013-04-08 03:38:55 overwrite stylesheets/invictus.css 
2013-04-08 03:39:42 overwrite stylesheets/invictus.css 
2013-04-08 03:41:11 overwrite css/invictus.css 
2013-04-08 03:43:57 overwrite css/invictus.css 
2013-04-08 03:44:44 overwrite css/invictus.css 
2013-04-08 03:45:13 overwrite css/invictus.css 
2013-04-08 03:45:23 identical css/invictus.css 
2013-04-08 03:45:55 overwrite css/invictus.css 
2013-04-08 03:47:55 overwrite css/invictus.css 
2013-04-08 03:48:49 overwrite css/invictus.css 
2013-04-08 04:18:29 overwrite css/invictus.css 
2013-04-08 04:18:34 identical css/invictus.css 
2013-04-11 12:41:19 overwrite css/invictus.css 
2013-04-11 12:43:19 overwrite css/invictus.css 
2013-04-11 12:45:35 overwrite css/invictus.css 
2013-04-11 12:48:48 overwrite css/invictus.css 
2013-04-11 12:49:42 overwrite css/invictus.css 
2013-04-11 15:12:31 overwrite css/invictus.css 
2013-04-11 15:13:46 overwrite css/invictus.css 
2013-04-11 15:14:10 overwrite css/invictus.css 
2013-04-11 15:18:40 overwrite css/invictus.css 
2013-04-11 15:21:14 overwrite css/invictus.css 
2013-04-11 15:23:27 overwrite css/invictus.css 
2013-04-11 15:49:13 overwrite css/invictus.css 
2013-04-11 15:52:10 overwrite css/invictus.css 
2013-04-11 15:53:10 overwrite css/invictus.css 
2013-04-11 15:53:56 overwrite css/invictus.css 
2013-04-11 15:54:38 overwrite css/invictus.css 
2013-04-11 15:55:08 overwrite css/invictus.css 
2013-04-11 15:55:16 overwrite css/invictus.css 
2013-04-11 15:56:08 overwrite css/invictus.css 
2013-04-11 15:57:06 overwrite css/invictus.css 
2013-04-11 15:57:19 identical css/invictus.css 
2013-04-11 15:57:47 overwrite css/invictus.css 
2013-04-11 15:58:58 overwrite css/invictus.css 
2013-04-11 15:59:32 overwrite css/invictus.css 
2013-04-11 16:00:23 overwrite css/invictus.css 
2013-04-11 16:01:26 overwrite css/invictus.css 
2013-04-11 16:02:44 overwrite css/invictus.css 
2013-04-11 16:03:39 overwrite css/invictus.css 
2013-04-11 16:04:38 overwrite css/invictus.css 
2013-04-11 16:12:52 overwrite css/invictus.css 
2013-04-11 16:13:27 overwrite css/invictus.css 
2013-04-11 16:16:37 overwrite css/invictus.css 
2013-04-11 16:17:27 overwrite css/invictus.css 
2013-04-11 16:18:33 overwrite css/invictus.css 
2013-04-11 16:18:47 overwrite css/invictus.css 
2013-04-11 16:19:42 overwrite css/invictus.css 
2013-04-11 16:21:32 overwrite css/invictus.css 
2013-04-11 16:22:10 overwrite css/invictus.css 
2013-04-12 17:30:47 overwrite css/invictus.css 
2013-04-12 19:22:06 overwrite css/invictus.css 
2013-04-12 19:23:01 overwrite css/invictus.css 
2013-04-12 19:23:06 overwrite css/invictus.css 
2013-04-12 19:25:52 overwrite css/invictus.css 
2013-04-12 19:26:43 overwrite css/invictus.css 
2013-04-12 19:28:15 overwrite css/invictus.css 
2013-04-12 19:31:07     error scss/invictus.scss (Line 1: File to import not found or unreadable: _sidebar.
Load paths:
  D:/Web/www/0002.GrabLab/invictus/project/src/Invictus/CmsBundle/Resources/public/scss
  C:/Program Files/compass.app/lib/ruby/compass_0.12/compass-0.12.2/frameworks/blueprint/stylesheets
  C:/Program Files/compass.app/lib/ruby/compass_0.12/compass-0.12.2/frameworks/compass/stylesheets
  C:/Program Files/compass.app/lib/ruby/compass_extensions/compass-960-plugin-f4bfe8555a7d2cae09bc/stylesheets
  C:/Program Files/compass.app/lib/ruby/compass_extensions/heygrady-compass-html5-boilerplate-4cc8815/stylesheets
  C:/Program Files/compass.app/lib/ruby/compass_extensions/compass-h5bp/stylesheets
  C:/Program Files/compass.app/lib/ruby/compass_extensions/bootstrap-sass-2.3.1.0/vendor/assets/stylesheets
  C:/Program Files/compass.app/lib/ruby/compass_extensions/susy-1.0.5/sass
  C:/Program Files/compass.app/lib/ruby/compass_extensions/zurb-foundation-4.0.8/scss
  Compass::SpriteImporter
  C:/Program Files/vendor/assets/stylesheets)
2013-04-12 19:31:08 overwrite css/invictus.css 
2013-04-12 19:31:08     error scss/invictus.scss (Line 1: File to import not found or unreadable: _sidebar.
Load paths:
  D:/Web/www/0002.GrabLab/invictus/project/src/Invictus/CmsBundle/Resources/public/scss
  C:/Program Files/compass.app/lib/ruby/compass_0.12/compass-0.12.2/frameworks/blueprint/stylesheets
  C:/Program Files/compass.app/lib/ruby/compass_0.12/compass-0.12.2/frameworks/compass/stylesheets
  C:/Program Files/compass.app/lib/ruby/compass_extensions/compass-960-plugin-f4bfe8555a7d2cae09bc/stylesheets
  C:/Program Files/compass.app/lib/ruby/compass_extensions/heygrady-compass-html5-boilerplate-4cc8815/stylesheets
  C:/Program Files/compass.app/lib/ruby/compass_extensions/compass-h5bp/stylesheets
  C:/Program Files/compass.app/lib/ruby/compass_extensions/bootstrap-sass-2.3.1.0/vendor/assets/stylesheets
  C:/Program Files/compass.app/lib/ruby/compass_extensions/susy-1.0.5/sass
  C:/Program Files/compass.app/lib/ruby/compass_extensions/zurb-foundation-4.0.8/scss
  Compass::SpriteImporter
  C:/Program Files/vendor/assets/stylesheets)
2013-04-12 19:31:08 identical css/invictus.css 
2013-04-12 19:31:23     error scss/invictus.scss (Line 1: File to import not found or unreadable: _tree_sidebar.
Load paths:
  D:/Web/www/0002.GrabLab/invictus/project/src/Invictus/CmsBundle/Resources/public/scss
  C:/Program Files/compass.app/lib/ruby/compass_0.12/compass-0.12.2/frameworks/blueprint/stylesheets
  C:/Program Files/compass.app/lib/ruby/compass_0.12/compass-0.12.2/frameworks/compass/stylesheets
  C:/Program Files/compass.app/lib/ruby/compass_extensions/compass-960-plugin-f4bfe8555a7d2cae09bc/stylesheets
  C:/Program Files/compass.app/lib/ruby/compass_extensions/heygrady-compass-html5-boilerplate-4cc8815/stylesheets
  C:/Program Files/compass.app/lib/ruby/compass_extensions/compass-h5bp/stylesheets
  C:/Program Files/compass.app/lib/ruby/compass_extensions/bootstrap-sass-2.3.1.0/vendor/assets/stylesheets
  C:/Program Files/compass.app/lib/ruby/compass_extensions/susy-1.0.5/sass
  C:/Program Files/compass.app/lib/ruby/compass_extensions/zurb-foundation-4.0.8/scss
  Compass::SpriteImporter
  C:/Program Files/vendor/assets/stylesheets)
2013-04-12 19:31:23 overwrite css/invictus.css 
2013-04-12 19:32:08 overwrite css/invictus.css 
2013-04-12 19:32:52 identical css/invictus.css 
2013-04-12 19:33:50 identical css/invictus.css 
2013-04-12 19:34:09 identical css/invictus.css 
2013-04-12 19:39:28 overwrite css/invictus.css 
2013-04-12 19:40:25 overwrite css/invictus.css 
2013-04-12 19:41:45 overwrite css/invictus.css 
2013-04-12 19:42:24 overwrite css/invictus.css 
2013-04-12 19:42:55 overwrite css/invictus.css 
2013-04-13 23:36:17 overwrite css/invictus.css 
2013-04-13 23:41:41 overwrite css/invictus.css 
2013-04-13 23:42:57 overwrite css/invictus.css 
2013-04-13 23:44:44 overwrite css/invictus.css 
2013-04-13 23:45:48 overwrite css/invictus.css 
2013-04-13 23:52:49 overwrite css/invictus.css 
2013-04-13 23:53:26 overwrite css/invictus.css 
2013-04-13 23:53:38 overwrite css/invictus.css 
2013-04-13 23:58:51 overwrite css/invictus.css 
2013-04-13 23:59:10 overwrite css/invictus.css 
2013-04-14 00:00:25 overwrite css/invictus.css 
2013-04-14 00:01:01 overwrite css/invictus.css 
2013-04-14 00:01:24 overwrite css/invictus.css 
2013-04-15 10:39:59 overwrite css/invictus.css 
2013-04-15 10:41:18 overwrite css/invictus.css 
2013-04-15 10:48:47 overwrite css/invictus.css 
2013-04-15 10:49:12 overwrite css/invictus.css 
2013-04-15 10:49:39 overwrite css/invictus.css 
2013-04-15 10:52:41 overwrite css/invictus.css 
2013-04-15 10:53:13 overwrite css/invictus.css 
2013-04-15 10:54:18 overwrite css/invictus.css 
2013-04-15 10:55:21 overwrite css/invictus.css 
2013-04-15 10:56:49 overwrite css/invictus.css 
2013-04-15 10:57:22 overwrite css/invictus.css 
2013-04-15 11:03:19 overwrite css/invictus.css 
2013-04-15 11:06:32 overwrite css/invictus.css 
2013-04-15 11:07:32 overwrite css/invictus.css 
2013-04-15 11:07:48 overwrite css/invictus.css 
2013-04-15 11:08:05 overwrite css/invictus.css 
2013-04-15 11:15:35 overwrite css/invictus.css 
2013-04-15 11:20:18     error scss/invictus.scss (Line 1 of scss/_menu_sidebar.scss: Invalid CSS after "...            0;}": expected "}", was "")
2013-04-15 11:20:18 overwrite css/invictus.css 
2013-04-15 11:20:40 overwrite css/invictus.css 
2013-04-15 11:21:47 overwrite css/invictus.css 
2013-04-15 11:22:53 overwrite css/invictus.css 
2013-04-15 11:23:18 overwrite css/invictus.css 
2013-04-15 11:24:57 overwrite css/invictus.css 
2013-04-15 11:25:54 overwrite css/invictus.css 
2013-04-15 11:26:40 overwrite css/invictus.css 
2013-04-15 11:26:48 overwrite css/invictus.css 
2013-04-15 11:28:58 overwrite css/invictus.css 
2013-04-15 11:31:16 overwrite css/invictus.css 
2013-04-15 11:32:20 overwrite css/invictus.css 
2013-04-15 11:33:07 overwrite css/invictus.css 
2013-04-15 11:33:14 overwrite css/invictus.css 
2013-04-15 11:34:28 overwrite css/invictus.css 
2013-04-15 11:34:39 overwrite css/invictus.css 
2013-04-15 11:35:07 overwrite css/invictus.css 
2013-04-15 11:35:44 overwrite css/invictus.css 
2013-04-15 11:36:15 overwrite css/invictus.css 
2013-04-15 11:36:39 overwrite css/invictus.css 
2013-04-15 11:36:56 overwrite css/invictus.css 
2013-04-15 11:37:35 overwrite css/invictus.css 
2013-04-15 11:41:29 overwrite css/invictus.css 
2013-04-15 11:42:22 overwrite css/invictus.css 
2013-04-15 11:50:15 overwrite css/invictus.css 
2013-04-15 11:51:30 overwrite css/invictus.css 
2013-04-15 11:53:47 overwrite css/invictus.css 
2013-04-15 11:54:38 overwrite css/invictus.css 
2013-04-15 11:55:11 overwrite css/invictus.css 
2013-04-15 11:58:50     error scss/invictus.scss (Line 1 of scss/_menu_sidebar.scss: Undefined variable: "$sidebar-bg".)
2013-04-15 11:58:50 overwrite css/invictus.css 
2013-04-15 11:59:01     error scss/invictus.scss (Line 1 of scss/_tree_sidebar.scss: Undefined variable: "$sidebar-bg".)
2013-04-15 11:59:01 overwrite css/invictus.css 
2013-04-15 11:59:11 overwrite css/invictus.css 
2013-04-15 11:59:44 identical css/invictus.css 
2013-04-15 12:01:03 identical css/invictus.css 
2013-04-15 12:01:21 overwrite css/invictus.css 
2013-04-15 12:01:45 overwrite css/invictus.css 
2013-04-15 12:02:09 overwrite css/invictus.css 
2013-04-15 12:02:44 overwrite css/invictus.css 
2013-04-15 12:02:53 overwrite css/invictus.css 
2013-04-15 12:03:11 overwrite css/invictus.css 
2013-04-15 12:03:52 overwrite css/invictus.css 
2013-04-15 12:04:18 overwrite css/invictus.css 
2013-04-15 12:05:25 overwrite css/invictus.css 
2013-04-15 12:11:03 overwrite css/invictus.css 
2013-04-15 12:12:53 overwrite css/invictus.css 
2013-04-15 12:33:15 overwrite css/invictus.css 
2013-04-15 12:35:07 overwrite css/invictus.css 
2013-04-15 12:38:52 overwrite css/invictus.css 
2013-04-15 15:53:00 overwrite css/invictus.css 
2013-04-15 15:54:09 overwrite css/invictus.css 
2013-04-15 15:55:52 overwrite css/invictus.css 
2013-04-15 15:56:51 overwrite css/invictus.css 
2013-04-15 16:11:32 overwrite css/invictus.css 
2013-04-15 16:11:54 overwrite css/invictus.css 
2013-04-15 16:15:19 overwrite css/invictus.css 
2013-04-15 16:16:42 overwrite css/invictus.css 
2013-04-15 16:17:00 overwrite css/invictus.css 
2013-04-15 16:20:09 overwrite css/invictus.css 
2013-04-15 16:21:15 identical css/invictus.css 
2013-04-15 16:22:55 overwrite css/invictus.css 
2013-04-15 16:23:19 overwrite css/invictus.css 
2013-04-15 16:31:39 overwrite css/invictus.css 
2013-04-15 16:32:34 overwrite css/invictus.css 
2013-04-15 16:33:01 overwrite css/invictus.css 
2013-04-15 16:34:04 overwrite css/invictus.css 
2013-04-15 16:34:38 overwrite css/invictus.css 
2013-04-15 16:34:47 overwrite css/invictus.css 
2013-04-15 16:35:42 overwrite css/invictus.css 
2013-04-15 16:37:53 overwrite css/invictus.css 
2013-04-15 16:40:00 overwrite css/invictus.css 
2013-04-15 16:40:40 overwrite css/invictus.css 
2013-04-15 16:46:17 overwrite css/invictus.css 
2013-04-15 16:49:03 overwrite css/invictus.css 
2013-04-15 16:50:47 overwrite css/invictus.css 
2013-04-15 16:51:06 overwrite css/invictus.css 
2013-04-15 16:52:13 overwrite css/invictus.css 
2013-04-15 16:52:22 overwrite css/invictus.css 
2013-04-15 16:52:46 overwrite css/invictus.css 
2013-04-15 16:52:51 identical css/invictus.css 
2013-04-15 16:54:01 overwrite css/invictus.css 
2013-04-15 16:55:34 overwrite css/invictus.css 
2013-04-15 16:55:47     error scss/invictus.scss (Line 1: File to import not found or unreadable: _tree_sidebar.
Load paths:
  D:/Web/www/0002.GrabLab/invictus/project/src/Invictus/CmsBundle/Resources/public/scss
  C:/Program Files/compass.app/lib/ruby/compass_0.12/compass-0.12.2/frameworks/blueprint/stylesheets
  C:/Program Files/compass.app/lib/ruby/compass_0.12/compass-0.12.2/frameworks/compass/stylesheets
  C:/Program Files/compass.app/lib/ruby/compass_extensions/compass-960-plugin-f4bfe8555a7d2cae09bc/stylesheets
  C:/Program Files/compass.app/lib/ruby/compass_extensions/heygrady-compass-html5-boilerplate-4cc8815/stylesheets
  C:/Program Files/compass.app/lib/ruby/compass_extensions/compass-h5bp/stylesheets
  C:/Program Files/compass.app/lib/ruby/compass_extensions/bootstrap-sass-2.3.1.0/vendor/assets/stylesheets
  C:/Program Files/compass.app/lib/ruby/compass_extensions/susy-1.0.5/sass
  C:/Program Files/compass.app/lib/ruby/compass_extensions/zurb-foundation-4.0.8/scss
  Compass::SpriteImporter
  C:/Program Files/vendor/assets/stylesheets)
2013-04-15 16:55:47 overwrite css/invictus.css 
2013-04-15 16:55:47     error scss/invictus.scss (Line 1: File to import not found or unreadable: _tree_sidebar.
Load paths:
  D:/Web/www/0002.GrabLab/invictus/project/src/Invictus/CmsBundle/Resources/public/scss
  C:/Program Files/compass.app/lib/ruby/compass_0.12/compass-0.12.2/frameworks/blueprint/stylesheets
  C:/Program Files/compass.app/lib/ruby/compass_0.12/compass-0.12.2/frameworks/compass/stylesheets
  C:/Program Files/compass.app/lib/ruby/compass_extensions/compass-960-plugin-f4bfe8555a7d2cae09bc/stylesheets
  C:/Program Files/compass.app/lib/ruby/compass_extensions/heygrady-compass-html5-boilerplate-4cc8815/stylesheets
  C:/Program Files/compass.app/lib/ruby/compass_extensions/compass-h5bp/stylesheets
  C:/Program Files/compass.app/lib/ruby/compass_extensions/bootstrap-sass-2.3.1.0/vendor/assets/stylesheets
  C:/Program Files/compass.app/lib/ruby/compass_extensions/susy-1.0.5/sass
  C:/Program Files/compass.app/lib/ruby/compass_extensions/zurb-foundation-4.0.8/scss
  Compass::SpriteImporter
  C:/Program Files/vendor/assets/stylesheets)
2013-04-15 16:55:47 identical css/invictus.css 
2013-04-15 16:55:55     error scss/invictus.scss (Line 1: File to import not found or unreadable: _menu_sidebar.
Load paths:
  D:/Web/www/0002.GrabLab/invictus/project/src/Invictus/CmsBundle/Resources/public/scss
  C:/Program Files/compass.app/lib/ruby/compass_0.12/compass-0.12.2/frameworks/blueprint/stylesheets
  C:/Program Files/compass.app/lib/ruby/compass_0.12/compass-0.12.2/frameworks/compass/stylesheets
  C:/Program Files/compass.app/lib/ruby/compass_extensions/compass-960-plugin-f4bfe8555a7d2cae09bc/stylesheets
  C:/Program Files/compass.app/lib/ruby/compass_extensions/heygrady-compass-html5-boilerplate-4cc8815/stylesheets
  C:/Program Files/compass.app/lib/ruby/compass_extensions/compass-h5bp/stylesheets
  C:/Program Files/compass.app/lib/ruby/compass_extensions/bootstrap-sass-2.3.1.0/vendor/assets/stylesheets
  C:/Program Files/compass.app/lib/ruby/compass_extensions/susy-1.0.5/sass
  C:/Program Files/compass.app/lib/ruby/compass_extensions/zurb-foundation-4.0.8/scss
  Compass::SpriteImporter
  C:/Program Files/vendor/assets/stylesheets)
2013-04-15 16:55:55 overwrite css/invictus.css 
2013-04-15 16:55:58     error scss/invictus.scss (Line 1: File to import not found or unreadable: _menu_sidebar.
Load paths:
  D:/Web/www/0002.GrabLab/invictus/project/src/Invictus/CmsBundle/Resources/public/scss
  C:/Program Files/compass.app/lib/ruby/compass_0.12/compass-0.12.2/frameworks/blueprint/stylesheets
  C:/Program Files/compass.app/lib/ruby/compass_0.12/compass-0.12.2/frameworks/compass/stylesheets
  C:/Program Files/compass.app/lib/ruby/compass_extensions/compass-960-plugin-f4bfe8555a7d2cae09bc/stylesheets
  C:/Program Files/compass.app/lib/ruby/compass_extensions/heygrady-compass-html5-boilerplate-4cc8815/stylesheets
  C:/Program Files/compass.app/lib/ruby/compass_extensions/compass-h5bp/stylesheets
  C:/Program Files/compass.app/lib/ruby/compass_extensions/bootstrap-sass-2.3.1.0/vendor/assets/stylesheets
  C:/Program Files/compass.app/lib/ruby/compass_extensions/susy-1.0.5/sass
  C:/Program Files/compass.app/lib/ruby/compass_extensions/zurb-foundation-4.0.8/scss
  Compass::SpriteImporter
  C:/Program Files/vendor/assets/stylesheets)
2013-04-15 16:55:58 overwrite css/invictus.css 
2013-04-15 16:56:17 overwrite css/invictus.css 
2013-04-15 16:57:38 overwrite css/invictus.css 
2013-04-15 16:57:56 overwrite css/invictus.css 
2013-04-15 17:03:08 overwrite css/invictus.css 
2013-04-15 17:04:20 overwrite css/invictus.css 
2013-04-15 17:06:15 overwrite css/invictus.css 
2013-04-15 17:07:29 overwrite css/invictus.css 
2013-04-15 17:08:49 overwrite css/invictus.css 
2013-04-15 17:09:16 overwrite css/invictus.css 
2013-04-15 17:10:33 overwrite css/invictus.css 
2013-04-15 17:11:35 overwrite css/invictus.css 
2013-04-15 17:12:12 overwrite css/invictus.css 
2013-04-15 17:14:28 overwrite css/invictus.css 
2013-04-15 17:15:09 overwrite css/invictus.css 
2013-04-15 17:15:59 overwrite css/invictus.css 
2013-04-15 17:16:44 overwrite css/invictus.css 
2013-04-15 17:19:12 overwrite css/invictus.css 
2013-04-15 17:22:04 overwrite css/invictus.css 
2013-04-15 17:24:01 overwrite css/invictus.css 
2013-04-15 17:36:49 overwrite css/invictus.css 
2013-04-15 17:38:45 overwrite css/invictus.css 
2013-04-15 17:38:58     error scss/invictus.scss (Line 1 of scss/_topbar.scss: Invalid CSS after "...out;    z-index": expected "{", was ";              ...")
2013-04-15 17:38:58 overwrite css/invictus.css 
2013-04-15 17:39:13     error scss/invictus.scss (Line 1 of scss/_topbar.scss: Invalid CSS after "...out;    z-index": expected "{", was ";              ...")
2013-04-15 17:39:13 identical css/invictus.css 
2013-04-15 17:39:38 overwrite css/invictus.css 
2013-04-15 17:40:24 overwrite css/invictus.css 
2013-04-15 17:40:57 overwrite css/invictus.css 
2013-04-15 17:42:04 overwrite css/invictus.css 
2013-04-15 17:42:42 overwrite css/invictus.css 
2013-04-15 17:43:46 overwrite css/invictus.css 
2013-04-15 17:47:44 overwrite css/invictus.css 
2013-04-15 17:53:42 overwrite css/invictus.css 
2013-04-15 17:54:24 overwrite css/invictus.css 
2013-04-15 18:14:16 overwrite css/invictus.css 
2013-04-15 18:19:00 overwrite css/invictus.css 
2013-04-15 18:26:39 overwrite css/invictus.css 
2013-04-15 18:28:30 overwrite css/invictus.css 
2013-04-15 18:31:06 overwrite css/invictus.css 
2013-04-15 18:34:36 overwrite css/invictus.css 
2013-04-15 18:34:50 overwrite css/invictus.css 
2013-04-15 18:35:25 overwrite css/invictus.css 
2013-04-15 18:43:52 overwrite css/invictus.css 
2013-04-15 18:45:22 overwrite css/invictus.css 
2013-04-15 18:46:36 overwrite css/invictus.css 
2013-04-15 18:48:22 overwrite css/invictus.css 
2013-04-15 18:49:23 overwrite css/invictus.css 
2013-04-15 18:51:18 identical css/invictus.css 
2013-04-15 18:51:45 identical css/invictus.css 
2013-04-15 18:52:37 overwrite css/invictus.css 
2013-04-15 18:53:21 overwrite css/invictus.css 
2013-04-15 18:55:53 overwrite css/invictus.css 
2013-04-15 18:55:57 identical css/invictus.css 
2013-04-15 18:56:54 overwrite css/invictus.css 
2013-04-15 18:57:23 overwrite css/invictus.css 
2013-04-15 18:58:08 overwrite css/invictus.css 
2013-04-15 18:58:43 overwrite css/invictus.css 
2013-04-15 18:59:03 overwrite css/invictus.css 
2013-04-15 18:59:15 overwrite css/invictus.css 
2013-04-15 18:59:31 overwrite css/invictus.css 
2013-04-15 19:00:32 overwrite css/invictus.css 
2013-04-15 19:03:03 overwrite css/invictus.css 
2013-04-15 19:04:23 overwrite css/invictus.css 
2013-04-15 19:04:33 overwrite css/invictus.css 
2013-04-15 19:06:13 overwrite css/invictus.css 
2013-04-15 19:06:20 overwrite css/invictus.css 
2013-04-15 19:07:21 overwrite css/invictus.css 
2013-04-15 19:08:01 overwrite css/invictus.css 
2013-04-15 19:08:33 overwrite css/invictus.css 
2013-04-16 18:29:42 overwrite css/invictus.css 
2013-04-16 18:30:41 overwrite css/invictus.css 
2013-04-16 19:18:45 overwrite css/invictus.css 
2013-04-16 19:21:14 overwrite css/invictus.css 
2013-04-16 19:22:27 overwrite css/invictus.css 
2013-04-16 19:49:57 overwrite css/invictus.css 
2013-04-16 19:51:13 overwrite css/invictus.css 
2013-04-16 19:53:57 overwrite css/invictus.css 
2013-04-16 19:55:31 overwrite css/invictus.css 
2013-04-17 00:59:23 overwrite css/invictus.css 
2013-04-17 01:01:09 overwrite css/invictus.css 
2013-04-17 01:01:52 overwrite css/invictus.css 
2013-04-17 01:02:22 overwrite css/invictus.css 
2013-04-17 01:05:06 overwrite css/invictus.css 
2013-04-17 01:06:03 overwrite css/invictus.css 
2013-04-17 01:06:18 overwrite css/invictus.css 
2013-04-17 01:06:31 overwrite css/invictus.css 
2013-04-17 01:07:26 overwrite css/invictus.css 
2013-04-17 01:07:37     error scss/invictus.scss (Line 1 of scss/_topbar.scss: Invalid CSS after "...          5px;}": expected "}", was "")
2013-04-17 01:07:37 overwrite css/invictus.css 
2013-04-17 01:07:51 overwrite css/invictus.css 
2013-04-17 20:35:03 overwrite css/invictus.css 
2013-04-17 20:36:06 overwrite css/invictus.css 
2013-04-17 20:41:35 overwrite css/invictus.css 
2013-04-17 20:42:21 overwrite css/invictus.css 
2013-04-17 20:44:22 overwrite css/invictus.css 
2013-04-17 21:04:32 overwrite css/invictus.css 
2013-04-17 21:05:34 overwrite css/invictus.css 
2013-04-17 21:07:14 overwrite css/invictus.css 
2013-04-17 21:08:19 overwrite css/invictus.css 
2013-04-17 21:09:15 overwrite css/invictus.css 
2013-04-17 21:12:45 overwrite css/invictus.css 
2013-04-17 21:14:25 overwrite css/invictus.css 
2013-04-17 21:14:39 overwrite css/invictus.css 
2013-04-17 21:15:31 overwrite css/invictus.css 
2013-04-17 21:17:54 overwrite css/invictus.css 
2013-04-17 21:19:31 overwrite css/invictus.css 
2013-04-17 21:19:59 overwrite css/invictus.css 
2013-04-17 21:20:49 overwrite css/invictus.css 
2013-04-17 21:21:29 overwrite css/invictus.css 
2013-04-17 21:22:35 overwrite css/invictus.css 
2013-04-18 11:04:37 overwrite css/invictus.css 
2013-04-18 11:05:25 overwrite css/invictus.css 
2013-04-18 11:07:39 overwrite css/invictus.css 
2013-04-18 13:02:06 overwrite css/invictus.css 
2013-04-18 13:02:20 overwrite css/invictus.css 
2013-04-18 13:02:39 overwrite css/invictus.css 
2013-04-18 15:16:43 overwrite css/invictus.css 
2013-04-18 15:18:48 overwrite css/invictus.css 
2013-04-18 15:19:03 overwrite css/invictus.css 
2013-04-18 15:19:49 overwrite css/invictus.css 
2013-04-18 15:22:27 overwrite css/invictus.css 
2013-04-18 15:22:52 overwrite css/invictus.css 
2013-04-18 15:23:43 overwrite css/invictus.css 
2013-04-18 15:25:21 overwrite css/invictus.css 
2013-04-18 15:58:24 overwrite css/invictus.css 
2013-04-18 15:59:07 overwrite css/invictus.css 
2013-04-18 16:00:39 overwrite css/invictus.css 
2013-04-18 16:00:54 overwrite css/invictus.css 
2013-04-18 16:04:43 overwrite css/invictus.css 
2013-04-18 16:06:01 overwrite css/invictus.css 
2013-04-18 16:06:49 overwrite css/invictus.css 
2013-04-18 16:10:48 overwrite css/invictus.css 
2013-04-18 16:19:02 overwrite css/invictus.css 
2013-04-18 16:20:00 overwrite css/invictus.css 
2013-04-18 16:20:55 overwrite css/invictus.css 
2013-04-18 16:21:22 overwrite css/invictus.css 
2013-04-18 16:21:38 overwrite css/invictus.css 
2013-04-18 16:21:50 overwrite css/invictus.css 
2013-04-18 16:22:12 overwrite css/invictus.css 
2013-04-18 16:22:39 overwrite css/invictus.css 
2013-04-18 16:22:50 overwrite css/invictus.css 
2013-04-18 16:23:36 overwrite css/invictus.css 
2013-04-18 16:26:02 overwrite css/invictus.css 
2013-04-18 16:27:38 overwrite css/invictus.css 
2013-04-18 16:27:56 overwrite css/invictus.css 
2013-04-18 16:28:18 overwrite css/invictus.css 
2013-04-18 16:28:27 overwrite css/invictus.css 
2013-04-18 16:28:36 overwrite css/invictus.css 
2013-04-18 16:29:36 overwrite css/invictus.css 
2013-04-18 16:35:30 overwrite css/invictus.css 
2013-04-18 16:37:59 identical css/invictus.css 
2013-04-18 16:38:06 overwrite css/invictus.css 
2013-04-18 16:38:42 overwrite css/invictus.css 
2013-04-18 16:39:27 overwrite css/invictus.css 
2013-04-18 16:51:06 identical css/invictus.css 
2013-04-18 19:54:29 overwrite css/invictus.css 
2013-04-18 19:56:54 overwrite css/invictus.css 
2013-04-18 19:58:08 overwrite css/invictus.css 
2013-04-19 10:45:32 overwrite css/invictus.css 
2013-04-19 18:50:33 overwrite css/invictus.css 
2013-04-19 19:04:25 overwrite css/invictus.css 
2013-04-19 19:05:49 overwrite css/invictus.css 
2013-04-22 12:51:09 overwrite css/invictus.css 
2013-04-22 12:58:04 overwrite css/invictus.css 
2013-04-22 12:58:40 overwrite css/invictus.css 
2013-04-22 13:22:28 overwrite css/invictus.css 
2013-04-22 13:22:41 overwrite css/invictus.css 
2013-04-22 13:23:32 overwrite css/invictus.css 
2013-04-22 13:27:26 overwrite css/invictus.css 
2013-04-22 13:28:15 overwrite css/invictus.css 
2013-04-22 18:04:43    create stylesheets/invictus.css 
2013-04-22 18:05:21 overwrite stylesheets/invictus.css 
2013-04-22 18:06:54 overwrite css/invictus.css 
2013-04-22 18:08:54 overwrite css/invictus.css 
2013-04-22 18:09:12 overwrite css/invictus.css 
2013-04-22 18:09:22 overwrite css/invictus.css 
2013-04-22 18:10:02 identical css/invictus.css 
2013-04-22 18:18:34 overwrite css/invictus.css 
2013-04-22 18:22:45 overwrite css/invictus.css 
2013-04-22 18:23:18 overwrite css/invictus.css 
2013-04-22 18:23:28 identical css/invictus.css 
2013-04-22 18:24:18 overwrite css/invictus.css 
2013-04-22 18:25:20 overwrite css/invictus.css 
2013-04-22 18:25:47 overwrite css/invictus.css 
2013-04-22 18:27:43 overwrite css/invictus.css 
2013-04-22 18:32:03 overwrite css/invictus.css 
2013-04-22 18:33:02 overwrite css/invictus.css 
2013-04-22 18:33:13 overwrite css/invictus.css 
2013-04-22 18:33:39 overwrite css/invictus.css 
2013-04-22 18:34:15 overwrite css/invictus.css 
2013-04-22 18:36:26 overwrite css/invictus.css 
2013-04-22 18:37:48 overwrite css/invictus.css 
2013-04-22 19:07:02 overwrite css/invictus.css 
